# total density of states output by FHI-aims, for a spin polarized system
# The energy reference for this output is the chemical potential, mu =       -0.257449 eV
#  aims_uuid : 6D85E66D-6B93-445C-A4D0-0D67690E705B                                                                                                                                                        
#    Energy (eV)      DOS(spin up)   DOS(spin down)
        -19.74255077          0.00000000          0.00000000
        -19.70255077          0.00000000          0.00000000
        -19.66255077          0.00000000          0.00000000
        -19.62255077          0.00000000          0.00000000
        -19.58255077          0.00000000          0.00000000
        -19.54255077          0.00000000          0.00000000
        -19.50255077          0.00000000          0.00000000
        -19.46255077          0.00000000          0.00000000
        -19.42255077          0.00000000          0.00000000
        -19.38255077          0.00000000          0.00000000
        -19.34255077          0.00000000          0.00000000
        -19.30255077          0.00000000          0.00000000
        -19.26255077          0.00000000          0.00000000
        -19.22255077          0.00000000          0.00000000
        -19.18255077          0.00000000          0.00000000
        -19.14255077          0.00000000          0.00000000
        -19.10255077          0.00000000          0.00000000
        -19.06255077          0.00000000          0.00000000
        -19.02255077          0.00000000          0.00000000
        -18.98255077          0.00000000          0.00000000
        -18.94255077          0.00000000          0.00000000
        -18.90255077          0.00000000          0.00000000
        -18.86255077          0.00000000          0.00000000
        -18.82255077          0.00000000          0.00000000
        -18.78255077          0.00000000          0.00000000
        -18.74255077          0.00000000          0.00000000
        -18.70255077          0.00000000          0.00000000
        -18.66255077          0.00000000          0.00000000
        -18.62255077          0.00000000          0.00000000
        -18.58255077          0.00000000          0.00000000
        -18.54255077          0.00000000          0.00000000
        -18.50255077          0.00000000          0.00000000
        -18.46255077          0.00000000          0.00000000
        -18.42255077          0.00000000          0.00000000
        -18.38255077          0.00000000          0.00000000
        -18.34255077          0.00000000          0.00000000
        -18.30255077          0.00000000          0.00000000
        -18.26255077          0.00000000          0.00000000
        -18.22255077          0.00000000          0.00000000
        -18.18255077          0.00000000          0.00000000
        -18.14255077          0.00000000          0.00000000
        -18.10255077          0.00000000          0.00000000
        -18.06255077          0.00000000          0.00000000
        -18.02255077          0.00000000          0.00000000
        -17.98255077          0.00000000          0.00000000
        -17.94255077          0.00000000          0.00000000
        -17.90255077          0.00000000          0.00000000
        -17.86255077          0.00000000          0.00000000
        -17.82255077          0.00000000          0.00000000
        -17.78255077          0.00000000          0.00000000
        -17.74255077          0.00000000          0.00000000
        -17.70255077          0.00000000          0.00000000
        -17.66255077          0.00000000          0.00000000
        -17.62255077          0.00000000          0.00000000
        -17.58255077          0.00000000          0.00000000
        -17.54255077          0.00000000          0.00000000
        -17.50255077          0.00000000          0.00000000
        -17.46255077          0.00000000          0.00000000
        -17.42255077          0.00000000          0.00000000
        -17.38255077          0.00000000          0.00000000
        -17.34255077          0.00000000          0.00000000
        -17.30255077          0.00000000          0.00000000
        -17.26255077          0.00000000          0.00000000
        -17.22255077          0.00000000          0.00000000
        -17.18255077          0.00000000          0.00000000
        -17.14255077          0.00000000          0.00000000
        -17.10255077          0.00000000          0.00000000
        -17.06255077          0.00000000          0.00000000
        -17.02255077          0.00000000          0.00000000
        -16.98255077          0.00000000          0.00000000
        -16.94255077          0.00000000          0.00000000
        -16.90255077          0.00000000          0.00000000
        -16.86255077          0.00000000          0.00000000
        -16.82255077          0.00000000          0.00000000
        -16.78255077          0.00000000          0.00000000
        -16.74255077          0.00000000          0.00000000
        -16.70255077          0.00000000          0.00000000
        -16.66255077          0.00000000          0.00000000
        -16.62255077          0.00000000          0.00000000
        -16.58255077          0.00000000          0.00000000
        -16.54255077          0.00000000          0.00000000
        -16.50255077          0.00000000          0.00000000
        -16.46255077          0.00000000          0.00000000
        -16.42255077          0.00000000          0.00000000
        -16.38255077          0.00000000          0.00000000
        -16.34255077          0.00000000          0.00000000
        -16.30255077          0.00000000          0.00000000
        -16.26255077          0.00000000          0.00000000
        -16.22255077          0.00000000          0.00000000
        -16.18255077          0.00000000          0.00000000
        -16.14255077          0.00000000          0.00000000
        -16.10255077          0.00000000          0.00000000
        -16.06255077          0.00000000          0.00000000
        -16.02255077          0.00000000          0.00000000
        -15.98255077          0.00000000          0.00000000
        -15.94255077          0.00000000          0.00000000
        -15.90255077          0.00000000          0.00000000
        -15.86255077          0.00000000          0.00000000
        -15.82255077          0.00000000          0.00000000
        -15.78255077          0.00000000          0.00000000
        -15.74255077          0.00000000          0.00000000
        -15.70255077          0.00000000          0.00000000
        -15.66255077          0.00000000          0.00000000
        -15.62255077          0.00000000          0.00000000
        -15.58255077          0.00000000          0.00000000
        -15.54255077          0.00000000          0.00000000
        -15.50255077          0.00000000          0.00000000
        -15.46255077          0.00000000          0.00000000
        -15.42255077          0.00000000          0.00000000
        -15.38255077          0.00000000          0.00000000
        -15.34255077          0.00000000          0.00000000
        -15.30255077          0.00000000          0.00000000
        -15.26255077          0.00000000          0.00000000
        -15.22255077          0.00000000          0.00000000
        -15.18255077          0.00000000          0.00000000
        -15.14255077          0.00000000          0.00000000
        -15.10255077          0.00000000          0.00000000
        -15.06255077          0.00000000          0.00000000
        -15.02255077          0.00000000          0.00000000
        -14.98255077          0.00000000          0.00000000
        -14.94255077          0.00000000          0.00000000
        -14.90255077          0.00000000          0.00000000
        -14.86255077          0.00000000          0.00000000
        -14.82255077          0.00000000          0.00000000
        -14.78255077          0.00000000          0.00000000
        -14.74255077          0.00000000          0.00000000
        -14.70255077          0.00000000          0.00000000
        -14.66255077          0.00000000          0.00000000
        -14.62255077          0.00000000          0.00000000
        -14.58255077          0.00000000          0.00000000
        -14.54255077          0.00000000          0.00000000
        -14.50255077          0.00000000          0.00000000
        -14.46255077          0.00000000          0.00000000
        -14.42255077          0.00000000          0.00000000
        -14.38255077          0.00000000          0.00000000
        -14.34255077          0.00000000          0.00000000
        -14.30255077          0.00000000          0.00000000
        -14.26255077          0.00000000          0.00000000
        -14.22255077          0.00000000          0.00000000
        -14.18255077          0.00000000          0.00000000
        -14.14255077          0.00000000          0.00000000
        -14.10255077          0.00000000          0.00000000
        -14.06255077          0.00000000          0.00000000
        -14.02255077          0.00000000          0.00000000
        -13.98255077          0.00000000          0.00000000
        -13.94255077          0.00000000          0.00000000
        -13.90255077          0.00000000          0.00000000
        -13.86255077          0.00000000          0.00000000
        -13.82255077          0.00000000          0.00000000
        -13.78255077          0.00000000          0.00000000
        -13.74255077          0.00000000          0.00000000
        -13.70255077          0.00000000          0.00000000
        -13.66255077          0.00000000          0.00000000
        -13.62255077          0.00000001          0.00000001
        -13.58255077          0.00000010          0.00000010
        -13.54255077          0.00000095          0.00000095
        -13.50255077          0.00000790          0.00000790
        -13.46255077          0.00005596          0.00005596
        -13.42255077          0.00033845          0.00033845
        -13.38255077          0.00174762          0.00174762
        -13.34255077          0.00770419          0.00770421
        -13.30255077          0.02899720          0.02899723
        -13.26255077          0.09318601          0.09318611
        -13.22255077          0.25569765          0.25569789
        -13.18255077          0.59909803          0.59909850
        -13.14255077          1.19860484          1.19860558
        -13.10255077          2.04772205          2.04772299
        -13.06255077          2.98738062          2.98738152
        -13.02255077          3.72169005          3.72169058
        -12.98255077          3.95934338          3.95934331
        -12.94255077          3.59699946          3.59699882
        -12.90255077          2.79055378          2.79055284
        -12.86255077          1.84871307          1.84871215
        -12.82255077          1.04585558          1.04585489
        -12.78255077          0.50522963          0.50522922
        -12.74255077          0.20840613          0.20840593
        -12.70255077          0.07340480          0.07340472
        -12.66255077          0.02207581          0.02207578
        -12.62255077          0.00566854          0.00566853
        -12.58255077          0.00124271          0.00124271
        -12.54255077          0.00023259          0.00023259
        -12.50255077          0.00003716          0.00003716
        -12.46255077          0.00000507          0.00000507
        -12.42255077          0.00000059          0.00000059
        -12.38255077          0.00000006          0.00000006
        -12.34255077          0.00000000          0.00000000
        -12.30255077          0.00000000          0.00000000
        -12.26255077          0.00000000          0.00000000
        -12.22255077          0.00000000          0.00000000
        -12.18255077          0.00000000          0.00000000
        -12.14255077          0.00000000          0.00000000
        -12.10255077          0.00000000          0.00000000
        -12.06255077          0.00000000          0.00000000
        -12.02255077          0.00000000          0.00000000
        -11.98255077          0.00000000          0.00000000
        -11.94255077          0.00000000          0.00000000
        -11.90255077          0.00000000          0.00000000
        -11.86255077          0.00000000          0.00000000
        -11.82255077          0.00000000          0.00000000
        -11.78255077          0.00000000          0.00000000
        -11.74255077          0.00000000          0.00000000
        -11.70255077          0.00000000          0.00000000
        -11.66255077          0.00000000          0.00000000
        -11.62255077          0.00000000          0.00000000
        -11.58255077          0.00000000          0.00000000
        -11.54255077          0.00000000          0.00000000
        -11.50255077          0.00000000          0.00000000
        -11.46255077          0.00000000          0.00000000
        -11.42255077          0.00000000          0.00000000
        -11.38255077          0.00000000          0.00000000
        -11.34255077          0.00000000          0.00000000
        -11.30255077          0.00000000          0.00000000
        -11.26255077          0.00000000          0.00000000
        -11.22255077          0.00000000          0.00000000
        -11.18255077          0.00000000          0.00000000
        -11.14255077          0.00000000          0.00000000
        -11.10255077          0.00000000          0.00000000
        -11.06255077          0.00000000          0.00000000
        -11.02255077          0.00000000          0.00000000
        -10.98255077          0.00000000          0.00000000
        -10.94255077          0.00000000          0.00000000
        -10.90255077          0.00000000          0.00000000
        -10.86255077          0.00000000          0.00000000
        -10.82255077          0.00000000          0.00000000
        -10.78255077          0.00000000          0.00000000
        -10.74255077          0.00000000          0.00000000
        -10.70255077          0.00000000          0.00000000
        -10.66255077          0.00000000          0.00000000
        -10.62255077          0.00000000          0.00000000
        -10.58255077          0.00000000          0.00000000
        -10.54255077          0.00000000          0.00000000
        -10.50255077          0.00000000          0.00000000
        -10.46255077          0.00000000          0.00000000
        -10.42255077          0.00000000          0.00000000
        -10.38255077          0.00000000          0.00000000
        -10.34255077          0.00000000          0.00000000
        -10.30255077          0.00000000          0.00000000
        -10.26255077          0.00000000          0.00000000
        -10.22255077          0.00000000          0.00000000
        -10.18255077          0.00000000          0.00000000
        -10.14255077          0.00000000          0.00000000
        -10.10255077          0.00000000          0.00000000
        -10.06255077          0.00000000          0.00000000
        -10.02255077          0.00000000          0.00000000
         -9.98255077          0.00000000          0.00000000
         -9.94255077          0.00000000          0.00000000
         -9.90255077          0.00000000          0.00000000
         -9.86255077          0.00000000          0.00000000
         -9.82255077          0.00000000          0.00000000
         -9.78255077          0.00000000          0.00000000
         -9.74255077          0.00000000          0.00000000
         -9.70255077          0.00000000          0.00000000
         -9.66255077          0.00000000          0.00000000
         -9.62255077          0.00000004          0.00000004
         -9.58255077          0.00000043          0.00000043
         -9.54255077          0.00000375          0.00000375
         -9.50255077          0.00002810          0.00002810
         -9.46255077          0.00017997          0.00017997
         -9.42255077          0.00098389          0.00098390
         -9.38255077          0.00459219          0.00459221
         -9.34255077          0.01829928          0.01829937
         -9.30255077          0.06225986          0.06226013
         -9.26255077          0.18086658          0.18086725
         -9.22255077          0.44864092          0.44864232
         -9.18255077          0.95025982          0.95026220
         -9.14255077          1.71869720          1.71870050
         -9.10255077          2.65447356          2.65447709
         -9.06255077          3.50094912          3.50095171
         -9.02255077          3.94298945          3.94299004
         -8.98255077          3.79227312          3.79227145
         -8.94255077          3.11463530          3.11463209
         -8.90255077          2.18446704          2.18446350
         -8.86255077          1.30830592          1.30830303
         -8.82255077          0.66910029          0.66909841
         -8.78255077          0.29220098          0.29219999
         -8.74255077          0.10896050          0.10896007
         -8.70255077          0.03469285          0.03469269
         -8.66255077          0.00943146          0.00943142
         -8.62255077          0.00218912          0.00218911
         -8.58255077          0.00043380          0.00043380
         -8.54255077          0.00007339          0.00007339
         -8.50255077          0.00001060          0.00001060
         -8.46255077          0.00000131          0.00000131
         -8.42255077          0.00000014          0.00000014
         -8.38255077          0.00000001          0.00000001
         -8.34255077          0.00000000          0.00000000
         -8.30255077          0.00000000          0.00000000
         -8.26255077          0.00000000          0.00000000
         -8.22255077          0.00000000          0.00000000
         -8.18255077          0.00000000          0.00000000
         -8.14255077          0.00000000          0.00000000
         -8.10255077          0.00000000          0.00000000
         -8.06255077          0.00000000          0.00000000
         -8.02255077          0.00000000          0.00000000
         -7.98255077          0.00000000          0.00000000
         -7.94255077          0.00000000          0.00000000
         -7.90255077          0.00000000          0.00000000
         -7.86255077          0.00000000          0.00000000
         -7.82255077          0.00000000          0.00000000
         -7.78255077          0.00000000          0.00000000
         -7.74255077          0.00000000          0.00000000
         -7.70255077          0.00000000          0.00000000
         -7.66255077          0.00000000          0.00000000
         -7.62255077          0.00000001          0.00000001
         -7.58255077          0.00000008          0.00000008
         -7.54255077          0.00000079          0.00000079
         -7.50255077          0.00000663          0.00000663
         -7.46255077          0.00004763          0.00004763
         -7.42255077          0.00029199          0.00029200
         -7.38255077          0.00152825          0.00152826
         -7.34255077          0.00682878          0.00682881
         -7.30255077          0.02605188          0.02605198
         -7.26255077          0.08485927          0.08485958
         -7.22255077          0.23601505          0.23601577
         -7.18255077          0.56049803          0.56049946
         -7.14255077          1.13661802          1.13662033
         -7.10255077          1.96820834          1.96821133
         -7.06255077          2.91039271          2.91039565
         -7.02255077          3.67503794          3.67503977
         -6.98255077          3.96282777          3.96282772
         -6.94255077          3.64907524          3.64907334
         -6.90255077          2.86941571          2.86941275
         -6.86255077          1.92678663          1.92678366
         -6.82255077          1.10483511          1.10483284
         -6.78255077          0.54097474          0.54097335
         -6.74255077          0.22618409          0.22618339
         -6.70255077          0.08074963          0.08074934
         -6.66255077          0.02461492          0.02461482
         -6.62255077          0.00640649          0.00640646
         -6.58255077          0.00142360          0.00142359
         -6.54255077          0.00027008          0.00027007
         -6.50255077          0.00004374          0.00004374
         -6.46255077          0.00000605          0.00000605
         -6.42255077          0.00000071          0.00000071
         -6.38255077          0.00000007          0.00000007
         -6.34255077          0.00000001          0.00000001
         -6.30255077          0.00000000          0.00000000
         -6.26255077          0.00000000          0.00000000
         -6.22255077          0.00000000          0.00000000
         -6.18255077          0.00000000          0.00000000
         -6.14255077          0.00000000          0.00000000
         -6.10255077          0.00000000          0.00000000
         -6.06255077          0.00000000          0.00000000
         -6.02255077          0.00000000          0.00000000
         -5.98255077          0.00000000          0.00000000
         -5.94255077          0.00000000          0.00000000
         -5.90255077          0.00000000          0.00000000
         -5.86255077          0.00000000          0.00000000
         -5.82255077          0.00000000          0.00000000
         -5.78255077          0.00000000          0.00000000
         -5.74255077          0.00000000          0.00000000
         -5.70255077          0.00000000          0.00000000
         -5.66255077          0.00000000          0.00000000
         -5.62255077          0.00000000          0.00000000
         -5.58255077          0.00000000          0.00000000
         -5.54255077          0.00000000          0.00000000
         -5.50255077          0.00000000          0.00000000
         -5.46255077          0.00000000          0.00000000
         -5.42255077          0.00000000          0.00000000
         -5.38255077          0.00000000          0.00000000
         -5.34255077          0.00000000          0.00000000
         -5.30255077          0.00000000          0.00000000
         -5.26255077          0.00000000          0.00000000
         -5.22255077          0.00000000          0.00000000
         -5.18255077          0.00000000          0.00000000
         -5.14255077          0.00000000          0.00000000
         -5.10255077          0.00000000          0.00000000
         -5.06255077          0.00000000          0.00000000
         -5.02255077          0.00000000          0.00000000
         -4.98255077          0.00000000          0.00000000
         -4.94255077          0.00000000          0.00000000
         -4.90255077          0.00000000          0.00000000
         -4.86255077          0.00000000          0.00000000
         -4.82255077          0.00000000          0.00000000
         -4.78255077          0.00000000          0.00000000
         -4.74255077          0.00000000          0.00000000
         -4.70255077          0.00000000          0.00000000
         -4.66255077          0.00000000          0.00000000
         -4.62255077          0.00000000          0.00000000
         -4.58255077          0.00000000          0.00000000
         -4.54255077          0.00000000          0.00000000
         -4.50255077          0.00000000          0.00000000
         -4.46255077          0.00000000          0.00000000
         -4.42255077          0.00000000          0.00000000
         -4.38255077          0.00000000          0.00000000
         -4.34255077          0.00000000          0.00000000
         -4.30255077          0.00000000          0.00000000
         -4.26255077          0.00000000          0.00000000
         -4.22255077          0.00000000          0.00000000
         -4.18255077          0.00000000          0.00000000
         -4.14255077          0.00000000          0.00000000
         -4.10255077          0.00000000          0.00000000
         -4.06255077          0.00000000          0.00000000
         -4.02255077          0.00000000          0.00000000
         -3.98255077          0.00000000          0.00000000
         -3.94255077          0.00000000          0.00000000
         -3.90255077          0.00000000          0.00000000
         -3.86255077          0.00000000          0.00000000
         -3.82255077          0.00000000          0.00000000
         -3.78255077          0.00000000          0.00000000
         -3.74255077          0.00000000          0.00000000
         -3.70255077          0.00000000          0.00000000
         -3.66255077          0.00000000          0.00000000
         -3.62255077          0.00000000          0.00000000
         -3.58255077          0.00000000          0.00000000
         -3.54255077          0.00000000          0.00000000
         -3.50255077          0.00000000          0.00000000
         -3.46255077          0.00000000          0.00000000
         -3.42255077          0.00000000          0.00000000
         -3.38255077          0.00000000          0.00000000
         -3.34255077          0.00000000          0.00000000
         -3.30255077          0.00000000          0.00000000
         -3.26255077          0.00000000          0.00000000
         -3.22255077          0.00000000          0.00000000
         -3.18255077          0.00000000          0.00000000
         -3.14255077          0.00000000          0.00000000
         -3.10255077          0.00000000          0.00000000
         -3.06255077          0.00000000          0.00000000
         -3.02255077          0.00000000          0.00000000
         -2.98255077          0.00000000          0.00000000
         -2.94255077          0.00000000          0.00000000
         -2.90255077          0.00000000          0.00000000
         -2.86255077          0.00000000          0.00000000
         -2.82255077          0.00000000          0.00000000
         -2.78255077          0.00000000          0.00000000
         -2.74255077          0.00000000          0.00000000
         -2.70255077          0.00000000          0.00000000
         -2.66255077          0.00000000          0.00000000
         -2.62255077          0.00000000          0.00000000
         -2.58255077          0.00000000          0.00000000
         -2.54255077          0.00000000          0.00000000
         -2.50255077          0.00000000          0.00000000
         -2.46255077          0.00000000          0.00000000
         -2.42255077          0.00000000          0.00000000
         -2.38255077          0.00000000          0.00000000
         -2.34255077          0.00000000          0.00000000
         -2.30255077          0.00000000          0.00000000
         -2.26255077          0.00000000          0.00000000
         -2.22255077          0.00000000          0.00000000
         -2.18255077          0.00000000          0.00000000
         -2.14255077          0.00000000          0.00000000
         -2.10255077          0.00000000          0.00000000
         -2.06255077          0.00000000          0.00000000
         -2.02255077          0.00000000          0.00000000
         -1.98255077          0.00000000          0.00000000
         -1.94255077          0.00000000          0.00000000
         -1.90255077          0.00000000          0.00000000
         -1.86255077          0.00000000          0.00000000
         -1.82255077          0.00000000          0.00000000
         -1.78255077          0.00000000          0.00000000
         -1.74255077          0.00000000          0.00000000
         -1.70255077          0.00000000          0.00000000
         -1.66255077          0.00000000          0.00000000
         -1.62255077          0.00000000          0.00000000
         -1.58255077          0.00000000          0.00000000
         -1.54255077          0.00000000          0.00000000
         -1.50255077          0.00000000          0.00000000
         -1.46255077          0.00000000          0.00000000
         -1.42255077          0.00000000          0.00000000
         -1.38255077          0.00000000          0.00000000
         -1.34255077          0.00000000          0.00000000
         -1.30255077          0.00000000          0.00000000
         -1.26255077          0.00000000          0.00000000
         -1.22255077          0.00000000          0.00000000
         -1.18255077          0.00000000          0.00000000
         -1.14255077          0.00000000          0.00000000
         -1.10255077          0.00000000          0.00000000
         -1.06255077          0.00000000          0.00000000
         -1.02255077          0.00000000          0.00000000
         -0.98255077          0.00000000          0.00000000
         -0.94255077          0.00000000          0.00000000
         -0.90255077          0.00000000          0.00000000
         -0.86255077          0.00000000          0.00000000
         -0.82255077          0.00000000          0.00000000
         -0.78255077          0.00000000          0.00000000
         -0.74255077          0.00000000          0.00000000
         -0.70255077          0.00000000          0.00000000
         -0.66255077          0.00000000          0.00000000
         -0.62255077          0.00000000          0.00000000
         -0.58255077          0.00000000          0.00000000
         -0.54255077          0.00000000          0.00000000
         -0.50255077          0.00000000          0.00000000
         -0.46255077          0.00000000          0.00000000
         -0.42255077          0.00000000          0.00000000
         -0.38255077          0.00000000          0.00000000
         -0.34255077          0.00000000          0.00000000
         -0.30255077          0.00000000          0.00000000
         -0.26255077          0.00000003          0.00000003
         -0.22255077          0.00000028          0.00000028
         -0.18255077          0.00000252          0.00000252
         -0.14255077          0.00001948          0.00001948
         -0.10255077          0.00012851          0.00012851
         -0.06255077          0.00072374          0.00072375
         -0.02255077          0.00347981          0.00347984
          0.01744923          0.01428459          0.01428471
          0.05744923          0.05006525          0.05006564
          0.09744923          0.14982291          0.14982391
          0.13744923          0.38283166          0.38283383
          0.17744923          0.83529173          0.83529561
          0.21744923          1.55625303          1.55625862
          0.25744923          2.47595550          2.47596181
          0.29744923          3.36382040          3.36382546
          0.33744923          3.90260503          3.90260683
          0.37744923          3.86643242          3.86643016
          0.41744923          3.27114755          3.27114223
          0.45744923          2.36331313          2.36330681
          0.49744923          1.45803873          1.45803331
          0.53744923          0.76813316          0.76812950
          0.57744923          0.34555284          0.34555083
          0.61744923          0.13273691          0.13273600
          0.65744923          0.04353666          0.04353631
          0.69744923          0.01219241          0.01219231
          0.73744923          0.00291527          0.00291524
          0.77744923          0.00059512          0.00059511
          0.81744923          0.00010372          0.00010372
          0.85744923          0.00001543          0.00001543
          0.89744923          0.00000196          0.00000196
          0.93744923          0.00000021          0.00000021
          0.97744923          0.00000002          0.00000002
          1.01744923          0.00000000          0.00000000
          1.05744923          0.00000000          0.00000000
          1.09744923          0.00000000          0.00000000
          1.13744923          0.00000000          0.00000000
          1.17744923          0.00000000          0.00000000
          1.21744923          0.00000000          0.00000000
          1.25744923          0.00000000          0.00000000
          1.29744923          0.00000000          0.00000000
          1.33744923          0.00000000          0.00000000
          1.37744923          0.00000000          0.00000000
          1.41744923          0.00000000          0.00000000
          1.45744923          0.00000000          0.00000000
          1.49744923          0.00000000          0.00000000
          1.53744923          0.00000000          0.00000000
          1.57744923          0.00000000          0.00000000
          1.61744923          0.00000000          0.00000000
          1.65744923          0.00000000          0.00000000
          1.69744923          0.00000000          0.00000000
          1.73744923          0.00000000          0.00000000
          1.77744923          0.00000000          0.00000000
          1.81744923          0.00000000          0.00000000
          1.85744923          0.00000000          0.00000000
          1.89744923          0.00000000          0.00000000
          1.93744923          0.00000000          0.00000000
          1.97744923          0.00000000          0.00000000
          2.01744923          0.00000000          0.00000000
          2.05744923          0.00000000          0.00000000
          2.09744923          0.00000000          0.00000000
          2.13744923          0.00000000          0.00000000
          2.17744923          0.00000000          0.00000000
          2.21744923          0.00000000          0.00000000
          2.25744923          0.00000000          0.00000000
          2.29744923          0.00000000          0.00000000
          2.33744923          0.00000000          0.00000000
          2.37744923          0.00000001          0.00000001
          2.41744923          0.00000008          0.00000008
          2.45744923          0.00000082          0.00000082
          2.49744923          0.00000687          0.00000687
          2.53744923          0.00004922          0.00004923
          2.57744923          0.00030095          0.00030095
          2.61744923          0.00157078          0.00157081
          2.65744923          0.00699952          0.00699960
          2.69744923          0.02662976          0.02663004
          2.73744923          0.08650300          0.08650380
          2.77744923          0.23992498          0.23992687
          2.81744923          0.56821672          0.56822044
          2.85744923          1.14910254          1.14910854
          2.89744923          1.98435696          1.98436471
          2.93744923          2.92620622          2.92621379
          2.97744923          3.68485029          3.68485495
          3.01744923          3.96248783          3.96248762
          3.05744923          3.63873380          3.63872881
          3.09744923          2.85341947          2.85341179
          3.13744923          1.91077861          1.91077095
          3.17744923          1.09264402          1.09263819
          3.21744923          0.53353453          0.53353098
          3.25744923          0.22245989          0.22245812
          3.29744923          0.07920163          0.07920089
          3.33744923          0.02407663          0.02407637
          3.37744923          0.00624915          0.00624907
          3.41744923          0.00138482          0.00138480
          3.45744923          0.00026199          0.00026199
          3.49744923          0.00004232          0.00004231
          3.53744923          0.00000583          0.00000583
          3.57744923          0.00000069          0.00000069
          3.61744923          0.00000007          0.00000007
          3.65744923          0.00000001          0.00000001
          3.69744923          0.00000000          0.00000000
          3.73744923          0.00000000          0.00000000
          3.77744923          0.00000000          0.00000000
          3.81744923          0.00000000          0.00000000
          3.85744923          0.00000000          0.00000000
          3.89744923          0.00000000          0.00000000
          3.93744923          0.00000000          0.00000000
          3.97744923          0.00000000          0.00000000
          4.01744923          0.00000000          0.00000000
          4.05744923          0.00000000          0.00000000
          4.09744923          0.00000000          0.00000000
          4.13744923          0.00000000          0.00000000
          4.17744923          0.00000000          0.00000000
          4.21744923          0.00000000          0.00000000
          4.25744923          0.00000000          0.00000000
          4.29744923          0.00000000          0.00000000
          4.33744923          0.00000000          0.00000000
          4.37744923          0.00000000          0.00000000
          4.41744923          0.00000000          0.00000000
          4.45744923          0.00000000          0.00000000
          4.49744923          0.00000000          0.00000000
          4.53744923          0.00000000          0.00000000
          4.57744923          0.00000000          0.00000000
          4.61744923          0.00000000          0.00000000
          4.65744923          0.00000000          0.00000000
          4.69744923          0.00000000          0.00000000
          4.73744923          0.00000000          0.00000000
          4.77744923          0.00000000          0.00000000
          4.81744923          0.00000000          0.00000000
          4.85744923          0.00000000          0.00000000
          4.89744923          0.00000000          0.00000000
          4.93744923          0.00000000          0.00000000
          4.97744923          0.00000000          0.00000000
          5.01744923          0.00000000          0.00000000
          5.05744923          0.00000000          0.00000000
          5.09744923          0.00000000          0.00000000
          5.13744923          0.00000000          0.00000000
          5.17744923          0.00000000          0.00000000
          5.21744923          0.00000000          0.00000000
          5.25744923          0.00000000          0.00000000
          5.29744923          0.00000000          0.00000000
          5.33744923          0.00000000          0.00000000
          5.37744923          0.00000000          0.00000000
          5.41744923          0.00000000          0.00000000
          5.45744923          0.00000000          0.00000000
          5.49744923          0.00000000          0.00000000
          5.53744923          0.00000000          0.00000000
          5.57744923          0.00000000          0.00000000
          5.61744923          0.00000000          0.00000000
          5.65744923          0.00000000          0.00000000
          5.69744923          0.00000000          0.00000000
          5.73744923          0.00000000          0.00000000
          5.77744923          0.00000000          0.00000000
          5.81744923          0.00000000          0.00000000
          5.85744923          0.00000000          0.00000000
          5.89744923          0.00000000          0.00000000
          5.93744923          0.00000000          0.00000000
          5.97744923          0.00000000          0.00000000
          6.01744923          0.00000000          0.00000000
          6.05744923          0.00000000          0.00000000
          6.09744923          0.00000000          0.00000000
          6.13744923          0.00000000          0.00000000
          6.17744923          0.00000000          0.00000000
          6.21744923          0.00000000          0.00000000
          6.25744923          0.00000000          0.00000000
          6.29744923          0.00000000          0.00000000
          6.33744923          0.00000000          0.00000000
          6.37744923          0.00000000          0.00000000
          6.41744923          0.00000000          0.00000000
          6.45744923          0.00000000          0.00000000
          6.49744923          0.00000000          0.00000000
          6.53744923          0.00000000          0.00000000
          6.57744923          0.00000000          0.00000000
          6.61744923          0.00000000          0.00000000
          6.65744923          0.00000000          0.00000000
          6.69744923          0.00000000          0.00000000
          6.73744923          0.00000000          0.00000000
          6.77744923          0.00000000          0.00000000
          6.81744923          0.00000000          0.00000000
          6.85744923          0.00000000          0.00000000
          6.89744923          0.00000000          0.00000000
          6.93744923          0.00000000          0.00000000
          6.97744923          0.00000000          0.00000000
          7.01744923          0.00000000          0.00000000
          7.05744923          0.00000000          0.00000000
          7.09744923          0.00000000          0.00000000
          7.13744923          0.00000000          0.00000000
          7.17744923          0.00000000          0.00000000
          7.21744923          0.00000000          0.00000000
          7.25744923          0.00000000          0.00000000
          7.29744923          0.00000000          0.00000000
          7.33744923          0.00000000          0.00000000
          7.37744923          0.00000000          0.00000000
          7.41744923          0.00000000          0.00000000
          7.45744923          0.00000000          0.00000000
          7.49744923          0.00000000          0.00000000
          7.53744923          0.00000000          0.00000000
          7.57744923          0.00000000          0.00000000
          7.61744923          0.00000001          0.00000001
          7.65744923          0.00000014          0.00000014
          7.69744923          0.00000133          0.00000133
          7.73744923          0.00001074          0.00001074
          7.77744923          0.00007430          0.00007430
          7.81744923          0.00043874          0.00043875
          7.85744923          0.00221172          0.00221173
          7.89744923          0.00951877          0.00951883
          7.93744923          0.03497710          0.03497730
          7.97744923          0.10973748          0.10973802
          8.01744923          0.29397458          0.29397582
          8.05744923          0.67245252          0.67245486
          8.09744923          1.31347582          1.31347944
          8.13744923          2.19078974          2.19079415
          8.17744923          3.12036119          3.12036518
          8.21744923          3.79524456          3.79524663
          8.25744923          3.94192428          3.94192353
          8.29744923          3.49631829          3.49631505
          8.33744923          2.64817114          2.64816674
          8.37744923          1.71281106          1.71280695
          8.41744923          0.94600809          0.94600513
          8.45744923          0.44616316          0.44616143
          8.49744923          0.17967821          0.17967738
          8.53744923          0.06178562          0.06178529
          8.57744923          0.01814083          0.01814072
          8.61744923          0.00454842          0.00454838
          8.65744923          0.00098011          0.00098010
          8.69744923          0.00022654          0.00022654
          8.73744923          0.00032571          0.00032571
          8.77744923          0.00156031          0.00156032
          8.81744923          0.00694312          0.00694316
          8.85744923          0.02643768          0.02643783
          8.89744923          0.08595709          0.08595752
          8.93744923          0.23862780          0.23862882
          8.97744923          0.56565878          0.56566080
          9.01744923          1.14497025          1.14497352
          9.05744923          1.97901944          1.97902366
          9.09744923          2.92098950          2.92099363
          9.13744923          3.68162620          3.68162875
          9.17744923          3.96262113          3.96262103
          9.21744923          3.64216536          3.64216265
          9.25744923          2.85870784          2.85870366
          9.29744923          1.91606100          1.91605682
          9.33744923          1.09666125          1.09665807
          9.37744923          0.53598327          0.53598133
          9.41744923          0.22368424          0.22368327
          9.45744923          0.07971000          0.07970960
          9.49744923          0.02425323          0.02425309
          9.53744923          0.00630072          0.00630067
          9.57744923          0.00139753          0.00139752
          9.61744923          0.00026478          0.00026478
          9.65744923          0.00004417          0.00004417
          9.69744923          0.00001715          0.00001715
          9.73744923          0.00007818          0.00007818
          9.77744923          0.00045596          0.00045596
          9.81744923          0.00228993          0.00228995
          9.85744923          0.00982021          0.00982026
          9.89744923          0.03595600          0.03595617
          9.93744923          0.11240634          0.11240679
          9.97744923          0.30005033          0.30005134
         10.01744923          0.68390336          0.68390526
         10.05744923          1.33108017          1.33108309
         10.09744923          2.21223898          2.21224252
         10.13744923          3.13968128          3.13968446
         10.17744923          3.80513358          3.80513519
         10.21744923          3.93811053          3.93810987
         10.25744923          3.48048730          3.48048467
         10.29744923          2.62678509          2.62678155
         10.33744923          1.69292311          1.69291984
         10.37744923          0.93169066          0.93168831
         10.41744923          0.43784409          0.43784273
         10.45744923          0.17569922          0.17569857
         10.49744923          0.06020189          0.06020163
         10.53744923          0.01761270          0.01761261
         10.57744923          0.00439948          0.00439945
         10.61744923          0.00093825          0.00093824
         10.65744923          0.00017083          0.00017083
         10.69744923          0.00002655          0.00002655
         10.73744923          0.00000352          0.00000352
         10.77744923          0.00000040          0.00000040
         10.81744923          0.00000004          0.00000004
         10.85744923          0.00000000          0.00000000
         10.89744923          0.00000000          0.00000000
         10.93744923          0.00000000          0.00000000
         10.97744923          0.00000000          0.00000000
         11.01744923          0.00000000          0.00000000
         11.05744923          0.00000000          0.00000000
         11.09744923          0.00000000          0.00000000
         11.13744923          0.00000000          0.00000000
         11.17744923          0.00000000          0.00000000
         11.21744923          0.00000000          0.00000000
         11.25744923          0.00000000          0.00000000
         11.29744923          0.00000000          0.00000000
         11.33744923          0.00000000          0.00000000
         11.37744923          0.00000000          0.00000000
         11.41744923          0.00000000          0.00000000
         11.45744923          0.00000000          0.00000000
         11.49744923          0.00000000          0.00000000
         11.53744923          0.00000000          0.00000000
         11.57744923          0.00000000          0.00000000
         11.61744923          0.00000000          0.00000000
         11.65744923          0.00000000          0.00000000
         11.69744923          0.00000000          0.00000000
         11.73744923          0.00000000          0.00000000
         11.77744923          0.00000000          0.00000000
         11.81744923          0.00000000          0.00000000
         11.85744923          0.00000000          0.00000000
         11.89744923          0.00000000          0.00000000
         11.93744923          0.00000000          0.00000000
         11.97744923          0.00000000          0.00000000
         12.01744923          0.00000000          0.00000000
         12.05744923          0.00000000          0.00000000
         12.09744923          0.00000000          0.00000000
         12.13744923          0.00000000          0.00000000
         12.17744923          0.00000000          0.00000000
         12.21744923          0.00000000          0.00000000
         12.25744923          0.00000000          0.00000000
         12.29744923          0.00000000          0.00000000
         12.33744923          0.00000000          0.00000000
         12.37744923          0.00000000          0.00000000
         12.41744923          0.00000000          0.00000000
         12.45744923          0.00000000          0.00000000
         12.49744923          0.00000000          0.00000000
         12.53744923          0.00000000          0.00000000
         12.57744923          0.00000000          0.00000000
         12.61744923          0.00000000          0.00000000
         12.65744923          0.00000000          0.00000000
         12.69744923          0.00000000          0.00000000
         12.73744923          0.00000000          0.00000000
         12.77744923          0.00000000          0.00000000
         12.81744923          0.00000000          0.00000000
         12.85744923          0.00000000          0.00000000
         12.89744923          0.00000000          0.00000000
         12.93744923          0.00000000          0.00000000
         12.97744923          0.00000000          0.00000000
         13.01744923          0.00000000          0.00000000
         13.05744923          0.00000000          0.00000000
         13.09744923          0.00000000          0.00000000
         13.13744923          0.00000000          0.00000000
         13.17744923          0.00000000          0.00000000
         13.21744923          0.00000000          0.00000000
         13.25744923          0.00000000          0.00000000
         13.29744923          0.00000000          0.00000000
         13.33744923          0.00000000          0.00000000
         13.37744923          0.00000000          0.00000000
         13.41744923          0.00000000          0.00000000
         13.45744923          0.00000000          0.00000000
         13.49744923          0.00000000          0.00000000
         13.53744923          0.00000000          0.00000000
         13.57744923          0.00000000          0.00000000
         13.61744923          0.00000000          0.00000000
         13.65744923          0.00000000          0.00000000
         13.69744923          0.00000000          0.00000000
         13.73744923          0.00000000          0.00000000
         13.77744923          0.00000000          0.00000000
         13.81744923          0.00000000          0.00000000
         13.85744923          0.00000000          0.00000000
         13.89744923          0.00000000          0.00000000
         13.93744923          0.00000000          0.00000000
         13.97744923          0.00000000          0.00000000
         14.01744923          0.00000000          0.00000000
         14.05744923          0.00000000          0.00000000
         14.09744923          0.00000000          0.00000000
         14.13744923          0.00000000          0.00000000
         14.17744923          0.00000000          0.00000000
         14.21744923          0.00000000          0.00000000
         14.25744923          0.00000000          0.00000000
         14.29744923          0.00000000          0.00000000
         14.33744923          0.00000000          0.00000000
         14.37744923          0.00000000          0.00000000
         14.41744923          0.00000000          0.00000000
         14.45744923          0.00000000          0.00000000
         14.49744923          0.00000000          0.00000000
         14.53744923          0.00000000          0.00000000
         14.57744923          0.00000000          0.00000000
         14.61744923          0.00000000          0.00000000
         14.65744923          0.00000000          0.00000000
         14.69744923          0.00000000          0.00000000
         14.73744923          0.00000000          0.00000000
         14.77744923          0.00000000          0.00000000
         14.81744923          0.00000000          0.00000000
         14.85744923          0.00000000          0.00000000
         14.89744923          0.00000000          0.00000000
         14.93744923          0.00000000          0.00000000
         14.97744923          0.00000000          0.00000000
         15.01744923          0.00000000          0.00000000
         15.05744923          0.00000000          0.00000000
         15.09744923          0.00000000          0.00000000
         15.13744923          0.00000000          0.00000000
         15.17744923          0.00000000          0.00000000
         15.21744923          0.00000000          0.00000000
         15.25744923          0.00000000          0.00000000
         15.29744923          0.00000000          0.00000000
         15.33744923          0.00000000          0.00000000
         15.37744923          0.00000000          0.00000000
         15.41744923          0.00000000          0.00000000
         15.45744923          0.00000000          0.00000000
         15.49744923          0.00000000          0.00000000
         15.53744923          0.00000000          0.00000000
         15.57744923          0.00000000          0.00000000
         15.61744923          0.00000000          0.00000000
         15.65744923          0.00000000          0.00000000
         15.69744923          0.00000001          0.00000001
         15.73744923          0.00000013          0.00000013
         15.77744923          0.00000127          0.00000127
         15.81744923          0.00001031          0.00001031
         15.85744923          0.00007154          0.00007154
         15.89744923          0.00042379          0.00042379
         15.93744923          0.00214325          0.00214326
         15.97744923          0.00925394          0.00925398
         16.01744923          0.03411385          0.03411398
         16.05744923          0.10737496          0.10737532
         16.09744923          0.28857491          0.28857572
         16.13744923          0.66223314          0.66223468
         16.17744923          1.29769207          1.29769446
         16.21744923          2.17145270          2.17145563
         16.25744923          3.10280529          3.10280796
         16.29744923          3.78607592          3.78607733
         16.33744923          3.94509704          3.94509658
         16.37744923          3.51042943          3.51042730
         16.41744923          2.66744372          2.66744080
         16.45744923          1.73084713          1.73084439
         16.49744923          0.95905673          0.95905474
         16.53744923          0.45377810          0.45377694
         16.57744923          0.18333520          0.18333464
         16.61744923          0.06324682          0.06324660
         16.65744923          0.01862978          0.01862971
         16.69744923          0.00468530          0.00468527
         16.73744923          0.00100602          0.00100602
         16.77744923          0.00018442          0.00018442
         16.81744923          0.00002886          0.00002886
         16.85744923          0.00000386          0.00000386
         16.89744923          0.00000044          0.00000044
         16.93744923          0.00000004          0.00000004
         16.97744923          0.00000000          0.00000000
         17.01744923          0.00000000          0.00000000
         17.05744923          0.00000000          0.00000000
         17.09744923          0.00000000          0.00000000
         17.13744923          0.00000000          0.00000000
         17.17744923          0.00000000          0.00000000
         17.21744923          0.00000000          0.00000000
         17.25744923          0.00000000          0.00000000
         17.29744923          0.00000000          0.00000000
         17.33744923          0.00000000          0.00000000
         17.37744923          0.00000000          0.00000000
         17.41744923          0.00000000          0.00000000
         17.45744923          0.00000000          0.00000000
         17.49744923          0.00000000          0.00000000
         17.53744923          0.00000000          0.00000000
         17.57744923          0.00000000          0.00000000
         17.61744923          0.00000000          0.00000000
         17.65744923          0.00000000          0.00000000
         17.69744923          0.00000000          0.00000000
         17.73744923          0.00000000          0.00000000
         17.77744923          0.00000000          0.00000000
         17.81744923          0.00000000          0.00000000
         17.85744923          0.00000000          0.00000000
         17.89744923          0.00000000          0.00000000
         17.93744923          0.00000000          0.00000000
         17.97744923          0.00000000          0.00000000
         18.01744923          0.00000000          0.00000000
         18.05744923          0.00000000          0.00000000
         18.09744923          0.00000000          0.00000000
         18.13744923          0.00000000          0.00000000
         18.17744923          0.00000000          0.00000000
         18.21744923          0.00000000          0.00000000
         18.25744923          0.00000000          0.00000000
         18.29744923          0.00000000          0.00000000
         18.33744923          0.00000000          0.00000000
         18.37744923          0.00000000          0.00000000
         18.41744923          0.00000000          0.00000000
         18.45744923          0.00000000          0.00000000
         18.49744923          0.00000000          0.00000000
         18.53744923          0.00000000          0.00000000
         18.57744923          0.00000000          0.00000000
         18.61744923          0.00000000          0.00000000
         18.65744923          0.00000000          0.00000000
         18.69744923          0.00000000          0.00000000
         18.73744923          0.00000000          0.00000000
         18.77744923          0.00000000          0.00000000
         18.81744923          0.00000000          0.00000000
         18.85744923          0.00000000          0.00000000
         18.89744923          0.00000000          0.00000000
         18.93744923          0.00000000          0.00000000
         18.97744923          0.00000000          0.00000000
         19.01744923          0.00000000          0.00000000
         19.05744923          0.00000000          0.00000000
         19.09744923          0.00000000          0.00000000
         19.13744923          0.00000000          0.00000000
         19.17744923          0.00000000          0.00000000
         19.21744923          0.00000000          0.00000000
         19.25744923          0.00000000          0.00000000
         19.29744923          0.00000000          0.00000000
         19.33744923          0.00000000          0.00000000
         19.37744923          0.00000000          0.00000000
         19.41744923          0.00000000          0.00000000
         19.45744923          0.00000000          0.00000000
         19.49744923          0.00000000          0.00000000
         19.53744923          0.00000000          0.00000000
         19.57744923          0.00000000          0.00000000
         19.61744923          0.00000000          0.00000000
         19.65744923          0.00000000          0.00000000
         19.69744923          0.00000000          0.00000000
         19.73744923          0.00000000          0.00000000
         19.77744923          0.00000000          0.00000000
         19.81744923          0.00000000          0.00000000
         19.85744923          0.00000000          0.00000000
         19.89744923          0.00000000          0.00000000
         19.93744923          0.00000000          0.00000000
         19.97744923          0.00000000          0.00000000
         20.01744923          0.00000000          0.00000000
         20.05744923          0.00000000          0.00000000
         20.09744923          0.00000000          0.00000000
         20.13744923          0.00000000          0.00000000
         20.17744923          0.00000000          0.00000000
         20.21744923          0.00000000          0.00000000
         20.25744923          0.00000000          0.00000000
