   1        0.5000000      0.0000000      0.0000000     2.00000        -10.07637     2.00000         -9.85880     0.00000         19.04871     0.00000         20.10839     0.00000         27.72282
   2        0.4938270      0.0123456      0.0000000     2.00000        -10.07603     2.00000         -9.85876     0.00000         19.05276     0.00000         20.11479     0.00000         27.72558
   3        0.4876541      0.0246911      0.0000000     2.00000        -10.07503     2.00000         -9.85865     0.00000         19.06495     0.00000         20.13402     0.00000         27.73385
   4        0.4814811      0.0370367      0.0000000     2.00000        -10.07335     2.00000         -9.85847     0.00000         19.08532     0.00000         20.16604     0.00000         27.74762
   5        0.4753081      0.0493822      0.0000000     2.00000        -10.07102     2.00000         -9.85823     0.00000         19.11396     0.00000         20.21085     0.00000         27.76685
   6        0.4691352      0.0617278      0.0000000     2.00000        -10.06805     2.00000         -9.85795     0.00000         19.15101     0.00000         20.26839     0.00000         27.79151
   7        0.4629622      0.0740733      0.0000000     2.00000        -10.06445     2.00000         -9.85764     0.00000         19.19663     0.00000         20.33860     0.00000         27.82153
   8        0.4567893      0.0864189      0.0000000     2.00000        -10.06024     2.00000         -9.85732     0.00000         19.25101     0.00000         20.42139     0.00000         27.85686
   9        0.4506163      0.0987644      0.0000000     2.00000        -10.05544     2.00000         -9.85702     0.00000         19.31439     0.00000         20.51663     0.00000         27.89741
  10        0.4444433      0.1111100      0.0000000     2.00000        -10.05009     2.00000         -9.85676     0.00000         19.38704     0.00000         20.62412     0.00000         27.94309
  11        0.4382704      0.1234556      0.0000000     2.00000        -10.04421     2.00000         -9.85658     0.00000         19.46924     0.00000         20.74361     0.00000         27.99380
  12        0.4320974      0.1358011      0.0000000     2.00000        -10.03783     2.00000         -9.85650     0.00000         19.56132     0.00000         20.87473     0.00000         28.04944
  13        0.4259244      0.1481467      0.0000000     2.00000        -10.03100     2.00000         -9.85657     0.00000         19.66363     0.00000         21.01704     0.00000         28.10987
  14        0.4197515      0.1604922      0.0000000     2.00000        -10.02374     2.00000         -9.85682     0.00000         19.77654     0.00000         21.16993     0.00000         28.17496
  15        0.4135785      0.1728378      0.0000000     2.00000        -10.01611     2.00000         -9.85729     0.00000         19.90041     0.00000         21.33264     0.00000         28.24456
  16        0.4074056      0.1851833      0.0000000     2.00000        -10.00813     2.00000         -9.85803     0.00000         20.03563     0.00000         21.50418     0.00000         28.30623
  17        0.4012326      0.1975289      0.0000000     2.00000         -9.99987     2.00000         -9.85908     0.00000         20.18259     0.00000         21.68329     0.00000         28.10417
  18        0.3950596      0.2098744      0.0000000     2.00000         -9.99136     2.00000         -9.86049     0.00000         20.34165     0.00000         21.86836     0.00000         27.88539
  19        0.3888867      0.2222200      0.0000000     2.00000         -9.98266     2.00000         -9.86229     0.00000         20.51317     0.00000         22.05724     0.00000         27.64880
  20        0.3827137      0.2345656      0.0000000     2.00000         -9.97382     2.00000         -9.86455     0.00000         20.69744     0.00000         22.24709     0.00000         27.39391
  21        0.3765407      0.2469111      0.0000000     2.00000         -9.96489     2.00000         -9.86731     0.00000         20.89471     0.00000         22.43392     0.00000         27.12138
  22        0.3703678      0.2592567      0.0000000     2.00000         -9.95592     2.00000         -9.87061     0.00000         21.10517     0.00000         22.61202     0.00000         26.83385
  23        0.3641948      0.2716022      0.0000000     2.00000         -9.94697     2.00000         -9.87450     0.00000         21.32889     0.00000         22.77275     0.00000         26.53732
  24        0.3580218      0.2839478      0.0000000     2.00000         -9.93809     2.00000         -9.87902     0.00000         21.56586     0.00000         22.90281     0.00000         26.24311
  25        0.3518489      0.2962933      0.0000000     2.00000         -9.92933     2.00000         -9.88423     0.00000         21.81589     0.00000         22.98179     0.00000         25.97047
  26        0.3456759      0.3086389      0.0000000     2.00000         -9.92076     2.00000         -9.89016     0.00000         22.07865     0.00000         22.98147     0.00000         25.74744
  27        0.3395030      0.3209845      0.0000000     2.00000         -9.91241     2.00000         -9.89685     0.00000         22.35363     0.00000         22.87238     0.00000         25.60433
  28        0.3333300      0.3333300      0.0000000     2.00000         -9.90435     2.00000         -9.90434     0.00000         22.64002     0.00000         22.64031     0.00000         25.55725
